v 20130925 2
P 0 4700 300 4700 1 0 0
{
T 0 4700 5 10 0 0 0 0 1
pintype=in
T 0 4700 5 10 0 0 0 0 1
pinseq=16
T 355 4695 5 10 1 1 0 0 1
pinlabel=\_ENOUT\_
T 205 4745 5 10 1 1 0 6 1
pinnumber=4
}
P 0 4400 300 4400 1 0 0
{
T 0 4400 5 10 0 0 0 0 1
pintype=in
T 0 4400 5 10 0 0 0 0 1
pinseq=17
T 355 4395 5 10 1 1 0 0 1
pinlabel=\_ENIN\_
T 205 4445 5 10 1 1 0 6 1
pinnumber=3
}
P 3300 2400 3000 2400 1 0 0
{
T 3300 2400 5 10 0 0 0 0 1
pintype=out
T 3300 2400 5 10 0 0 0 0 1
pinseq=19
T 2945 2395 5 10 1 1 0 6 1
pinlabel=SIN
T 3095 2445 5 10 1 1 0 0 1
pinnumber=24
}
P 0 8000 300 8000 1 0 0
{
T 0 8000 5 10 0 0 0 6 1
pintype=out
T 0 8000 5 10 0 0 0 6 1
pinseq=3
T 355 7995 5 10 1 1 0 0 1
pinlabel=VCC
T 205 8045 5 10 1 1 0 6 1
pinnumber=40
}
P 0 6800 300 6800 1 0 0
{
T 0 6800 5 10 0 0 0 6 1
pintype=out
T 0 6800 5 10 0 0 0 6 1
pinseq=2
T 355 6795 5 10 1 1 0 0 1
pinlabel=XOUT
T 205 6845 5 10 1 1 0 6 1
pinnumber=38
}
B 300 300 2700 8300 3 0 0 0 -1 -1 0 -1 -1 -1 -1 -1
P 3300 3200 3000 3200 1 0 0
{
T 3300 3200 5 10 0 0 0 6 1
pintype=clk
T 2945 3195 5 10 1 1 0 6 1
pinlabel=\_WDS\_
T 3095 3245 5 10 1 1 0 0 1
pinnumber=1
T 3300 3200 5 10 0 0 0 6 1
pinseq=6
}
P 3300 3500 3000 3500 1 0 0
{
T 3300 3500 5 10 0 0 0 6 1
pintype=in
T 3300 3500 5 10 0 0 0 6 1
pinseq=26
T 2945 3495 5 10 1 1 0 6 1
pinlabel=\_RDS\_
T 3095 3545 5 10 1 1 0 0 1
pinnumber=2
}
P 0 1500 300 1500 1 0 0
{
T 0 1500 5 10 0 0 0 0 1
pintype=tri
T 355 1495 5 10 1 1 0 0 1
pinlabel=DB2
T 205 1545 5 10 1 1 0 6 1
pinnumber=14
T 0 1500 5 10 0 0 0 0 1
pinseq=14
}
P 0 1800 300 1800 1 0 0
{
T 0 1800 5 10 0 0 0 0 1
pintype=tri
T 355 1795 5 10 1 1 0 0 1
pinlabel=DB3
T 205 1845 5 10 1 1 0 6 1
pinnumber=13
T 0 1800 5 10 0 0 0 0 1
pinseq=15
}
P 0 2100 300 2100 1 0 0
{
T 0 2100 5 10 0 0 0 0 1
pintype=tri
T 355 2095 5 10 1 1 0 0 1
pinlabel=DB4
T 205 2145 5 10 1 1 0 6 1
pinnumber=12
T 0 2100 5 10 0 0 0 0 1
pinseq=12
}
P 0 2400 300 2400 1 0 0
{
T 0 2400 5 10 0 0 0 0 1
pintype=tri
T 355 2395 5 10 1 1 0 0 1
pinlabel=DB5
T 205 2445 5 10 1 1 0 6 1
pinnumber=11
T 0 2400 5 10 0 0 0 0 1
pinseq=8
}
P 0 2700 300 2700 1 0 0
{
T 0 2700 5 10 0 0 0 0 1
pintype=tri
T 355 2695 5 10 1 1 0 0 1
pinlabel=DB6
T 205 2745 5 10 1 1 0 6 1
pinnumber=10
T 0 2700 5 10 0 0 0 0 1
pinseq=7
}
P 0 3000 300 3000 1 0 0
{
T 0 3000 5 10 0 0 0 0 1
pintype=tri
T 355 2995 5 10 1 1 0 0 1
pinlabel=DB7
T 205 3045 5 10 1 1 0 6 1
pinnumber=9
T 0 3000 5 10 0 0 0 0 1
pinseq=9
}
P 0 5600 300 5600 1 0 0
{
T 0 5600 5 10 0 0 0 0 1
pintype=tri
T 355 5595 5 10 1 1 0 0 1
pinlabel=CONT
T 205 5645 5 10 1 1 0 6 1
pinnumber=8
T 0 5600 5 10 0 0 0 0 1
pinseq=10
}
P 0 5900 300 5900 1 0 0
{
T 0 5900 5 10 0 0 0 0 1
pintype=tri
T 355 5895 5 10 1 1 0 0 1
pinlabel=\_RST\_
T 205 5945 5 10 1 1 0 6 1
pinnumber=7
T 0 5900 5 10 0 0 0 0 1
pinseq=13
}
P 0 6500 300 6500 1 0 0
{
T 0 6500 5 10 0 0 0 6 1
pintype=out
T 0 6500 5 10 0 0 0 6 1
pinseq=1
T 355 6495 5 10 1 1 0 0 1
pinlabel=XIN
T 205 6545 5 10 1 1 0 6 1
pinnumber=37
}
P 3300 7400 3000 7400 1 0 0
{
T 3300 7400 5 10 0 0 0 0 1
pintype=out
T 3300 7400 5 10 0 0 0 0 1
pinseq=40
T 2945 7395 5 10 1 1 0 6 1
pinlabel=AD10
T 3095 7445 5 10 1 1 0 0 1
pinnumber=35
}
P 3300 7100 3000 7100 1 0 0
{
T 3300 7100 5 10 0 0 0 0 1
pintype=out
T 3300 7100 5 10 0 0 0 0 1
pinseq=39
T 2945 7095 5 10 1 1 0 6 1
pinlabel=AD09
T 3095 7145 5 10 1 1 0 0 1
pinnumber=34
}
P 3300 6800 3000 6800 1 0 0
{
T 3300 6800 5 10 0 0 0 0 1
pintype=out
T 3300 6800 5 10 0 0 0 0 1
pinseq=38
T 2945 6795 5 10 1 1 0 6 1
pinlabel=AD08
T 3095 6845 5 10 1 1 0 0 1
pinnumber=33
}
P 3300 6500 3000 6500 1 0 0
{
T 3300 6500 5 10 0 0 0 0 1
pintype=out
T 3300 6500 5 10 0 0 0 0 1
pinseq=37
T 2945 6495 5 10 1 1 0 6 1
pinlabel=AD07
T 3095 6545 5 10 1 1 0 0 1
pinnumber=32
}
P 3300 6200 3000 6200 1 0 0
{
T 3300 6200 5 10 0 0 0 0 1
pintype=out
T 3300 6200 5 10 0 0 0 0 1
pinseq=36
T 2945 6195 5 10 1 1 0 6 1
pinlabel=AD06
T 3095 6245 5 10 1 1 0 0 1
pinnumber=31
}
P 3300 5900 3000 5900 1 0 0
{
T 3300 5900 5 10 0 0 0 0 1
pintype=out
T 3300 5900 5 10 0 0 0 0 1
pinseq=35
T 2945 5895 5 10 1 1 0 6 1
pinlabel=AD05
T 3095 5945 5 10 1 1 0 0 1
pinnumber=30
}
P 3300 5600 3000 5600 1 0 0
{
T 3300 5600 5 10 0 0 0 0 1
pintype=out
T 3300 5600 5 10 0 0 0 0 1
pinseq=34
T 2945 5595 5 10 1 1 0 6 1
pinlabel=AD04
T 3095 5645 5 10 1 1 0 0 1
pinnumber=29
}
P 3300 5300 3000 5300 1 0 0
{
T 3300 5300 5 10 0 0 0 0 1
pintype=out
T 3300 5300 5 10 0 0 0 0 1
pinseq=33
T 2945 5295 5 10 1 1 0 6 1
pinlabel=AD03
T 3095 5345 5 10 1 1 0 0 1
pinnumber=28
}
P 3300 5000 3000 5000 1 0 0
{
T 3300 5000 5 10 0 0 0 0 1
pintype=out
T 3300 5000 5 10 0 0 0 0 1
pinseq=32
T 2945 4995 5 10 1 1 0 6 1
pinlabel=AD02
T 3095 5045 5 10 1 1 0 0 1
pinnumber=27
}
P 3300 4700 3000 4700 1 0 0
{
T 3300 4700 5 10 0 0 0 0 1
pintype=out
T 3300 4700 5 10 0 0 0 0 1
pinseq=31
T 2945 4695 5 10 1 1 0 6 1
pinlabel=AD01
T 3095 4745 5 10 1 1 0 0 1
pinnumber=26
}
P 3300 4400 3000 4400 1 0 0
{
T 3300 4400 5 10 0 0 0 0 1
pintype=out
T 3300 4400 5 10 0 0 0 0 1
pinseq=30
T 2945 4395 5 10 1 1 0 6 1
pinlabel=AD00
T 3095 4445 5 10 1 1 0 0 1
pinnumber=25
}
T 1400 5100 8 10 1 1 0 0 1
device=INS8060
T 4700 4300 8 10 0 1 0 0 1
description=Z80 MICROPROCESSOR
T 1400 4900 8 10 1 1 0 0 1
footprint=DIP40
T 4700 4100 8 10 0 0 0 0 1
numslots=1
T 1400 5300 8 10 1 1 0 0 1
refdes=U?
P 3300 2100 3000 2100 1 0 0
{
T 3300 2100 5 10 0 0 0 0 1
pintype=out
T 3300 2100 5 10 0 0 0 0 1
pinseq=20
T 2945 2095 5 10 1 1 0 6 1
pinlabel=SOUT
T 3095 2145 5 10 1 1 0 0 1
pinnumber=23
}
P 3300 900 3000 900 1 0 0
{
T 3300 900 5 10 0 0 0 0 1
pintype=out
T 3300 900 5 10 0 0 0 0 1
pinseq=21
T 2945 895 5 10 1 1 0 6 1
pinlabel=FLAG-2
T 3095 945 5 10 1 1 0 0 1
pinnumber=22
}
P 0 5300 300 5300 1 0 0
{
T 0 5300 5 10 0 0 0 0 1
pintype=in
T 0 5300 5 10 0 0 0 0 1
pinseq=25
T 355 5295 5 10 1 1 0 0 1
pinlabel=\_BREQ\_
T 205 5345 5 10 1 1 0 6 1
pinnumber=5
}
P 3300 1200 3000 1200 1 0 0
{
T 3300 1200 5 10 0 0 0 0 1
pintype=out
T 3300 1200 5 10 0 0 0 0 1
pinseq=22
T 2945 1195 5 10 1 1 0 6 1
pinlabel=FLAG-1
T 3095 1245 5 10 1 1 0 0 1
pinnumber=21
}
P 0 5000 300 5000 1 0 0
{
T 0 5000 5 10 0 0 0 0 1
pintype=out
T 0 5000 5 10 0 0 0 0 1
pinseq=24
T 355 4995 5 10 1 1 0 0 1
pinlabel=\_HOLD\_
T 205 5045 5 10 1 1 0 6 1
pinnumber=6
}
P 0 900 300 900 1 0 0
{
T 0 900 5 10 0 0 0 0 1
pintype=tri
T 0 900 5 10 0 0 0 0 1
pinseq=14
T 355 895 5 10 1 1 0 0 1
pinlabel=DB0
T 205 945 5 10 1 1 0 6 1
pinnumber=16
}
P 0 1200 300 1200 1 0 0
{
T 0 1200 5 10 0 0 0 0 1
pintype=tri
T 0 1200 5 10 0 0 0 0 1
pinseq=15
T 355 1195 5 10 1 1 0 0 1
pinlabel=DB1
T 205 1245 5 10 1 1 0 6 1
pinnumber=15
}
P 0 3500 300 3500 1 0 0
{
T 0 3500 5 10 0 0 0 0 1
pintype=tri
T 0 3500 5 10 0 0 0 0 1
pinseq=14
T 355 3495 5 10 1 1 0 0 1
pinlabel=SENSE-B
T 205 3545 5 10 1 1 0 6 1
pinnumber=18
}
P 0 3800 300 3800 1 0 0
{
T 0 3800 5 10 0 0 0 0 1
pintype=tri
T 0 3800 5 10 0 0 0 0 1
pinseq=15
T 355 3795 5 10 1 1 0 0 1
pinlabel=SENSE-A
T 205 3845 5 10 1 1 0 6 1
pinnumber=17
}
P 0 7400 300 7400 1 0 0
{
T 0 7400 5 10 0 0 0 0 1
pintype=tri
T 0 7400 5 10 0 0 0 0 1
pinseq=14
T 355 7395 5 10 1 1 0 0 1
pinlabel=GND
T 205 7445 5 10 1 1 0 6 1
pinnumber=20
}
P 3300 1500 3000 1500 1 0 0
{
T 3300 1500 5 10 0 0 0 6 1
pintype=tri
T 3300 1500 5 10 0 0 0 6 1
pinseq=15
T 2945 1495 5 10 1 1 0 6 1
pinlabel=FLAG-0
T 3095 1545 5 10 1 1 0 0 1
pinnumber=19
}
P 3300 7700 3000 7700 1 0 0
{
T 3300 7700 5 10 0 0 0 0 1
pintype=out
T 3300 7700 5 10 0 0 0 0 1
pinseq=40
T 2945 7695 5 10 1 1 0 6 1
pinlabel=AD11
T 3095 7745 5 10 1 1 0 0 1
pinnumber=36
}
P 3300 3800 3000 3800 1 0 0
{
T 3300 3800 5 10 0 0 0 0 1
pintype=out
T 3300 3800 5 10 0 0 0 0 1
pinseq=2
T 2945 3795 5 10 1 1 0 6 1
pinlabel=\_ADS\_
T 3095 3845 5 10 1 1 0 0 1
pinnumber=39
}
