v 20130925 2
C 40000 40000 0 0 0 title-B.sym
C 51400 42100 1 0 0 65c02-1.sym
{
T 52800 47200 5 10 1 1 0 0 1
device=65C02
T 52800 47000 5 10 1 1 0 0 1
footprint=DIP40
T 52800 47400 5 10 1 1 0 0 1
refdes=U1
}
C 42900 43000 1 0 0 megahdr2x18-1.sym
{
T 43600 49300 5 10 1 1 0 0 1
device=MEGAHDR2X18
T 43600 49100 5 10 1 1 0 0 1
footprint=HEADER36_1
T 43600 49500 5 10 1 1 0 0 1
refdes=J1
}
C 42400 48800 1 0 0 5V-plus-1.sym
C 45500 48800 1 0 0 5V-plus-1.sym
C 52700 50400 1 0 0 5V-plus-1.sym
C 42500 42800 1 0 0 gnd-1.sym
C 45600 42800 1 0 0 gnd-1.sym
C 53100 41600 1 0 0 gnd-1.sym
N 52900 50200 52900 50400 4
N 53200 42100 53200 41900 4
N 45400 43400 45700 43400 4
N 45700 43400 45700 43100 4
N 42600 43100 42600 43400 4
N 42600 43400 42900 43400 4
N 42600 48800 42600 48500 4
N 42600 48500 42900 48500 4
N 45400 48500 45700 48500 4
N 45700 48500 45700 48800 4
C 47400 40800 1 90 0 capacitor-1.sym
{
T 46700 41000 5 10 0 0 90 0 1
device=CAPACITOR
T 47500 41400 5 10 1 1 0 0 1
refdes=C1
T 46500 41000 5 10 0 0 90 0 1
symversion=0.1
T 47500 41200 5 10 1 1 0 0 1
value=100NF
T 47500 41000 5 10 1 1 0 0 1
footprint=0805
}
C 48500 40800 1 90 0 capacitor-1.sym
{
T 47800 41000 5 10 0 0 90 0 1
device=CAPACITOR
T 48600 41400 5 10 1 1 0 0 1
refdes=C2
T 47600 41000 5 10 0 0 90 0 1
symversion=0.1
T 48600 41200 5 10 1 1 0 0 1
value=100NF
T 48600 41000 5 10 1 1 0 0 1
footprint=0805
}
C 47000 41900 1 0 0 5V-plus-1.sym
C 47100 40300 1 0 0 gnd-1.sym
C 48200 40300 1 0 0 gnd-1.sym
N 47200 40800 47200 40600 4
N 48300 40800 48300 40600 4
N 47200 41900 47200 41700 4
N 48300 41700 48300 41800 4
N 48300 41800 47200 41800 4
U 41300 49000 41300 46200 10 1
N 42900 48200 41500 48200 4
{
T 41700 48200 5 10 1 1 0 0 1
netname=A0
}
C 41500 48200 1 90 0 busripper-1.sym
{
T 41100 48200 5 8 0 0 90 0 1
device=none
}
N 42900 47900 41500 47900 4
{
T 41700 47900 5 10 1 1 0 0 1
netname=A2
}
C 41500 47900 1 90 0 busripper-1.sym
{
T 41100 47900 5 8 0 0 90 0 1
device=none
}
N 42900 47600 41500 47600 4
{
T 41700 47600 5 10 1 1 0 0 1
netname=A4
}
C 41500 47600 1 90 0 busripper-1.sym
{
T 41100 47600 5 8 0 0 90 0 1
device=none
}
N 42900 47300 41500 47300 4
{
T 41700 47300 5 10 1 1 0 0 1
netname=A6
}
C 41500 47300 1 90 0 busripper-1.sym
{
T 41100 47300 5 8 0 0 90 0 1
device=none
}
U 41300 49000 40400 49000 10 0
{
T 40400 49100 5 10 1 1 0 0 1
netname=ADDR
}
U 47000 46200 47000 49000 10 1
U 47000 49000 47900 49000 10 0
{
T 47400 49100 5 10 1 1 0 0 1
netname=ADDR
}
N 45400 47300 46800 47300 4
{
T 46400 47300 5 10 1 1 0 0 1
netname=A7
}
C 46800 47300 1 0 0 busripper-1.sym
{
T 46800 47700 5 8 0 0 0 0 1
device=none
}
N 45400 47600 46800 47600 4
{
T 46400 47600 5 10 1 1 0 0 1
netname=A5
}
C 46800 47600 1 0 0 busripper-1.sym
{
T 46800 48000 5 8 0 0 0 0 1
device=none
}
N 45400 47900 46800 47900 4
{
T 46400 47900 5 10 1 1 0 0 1
netname=A3
}
C 46800 47900 1 0 0 busripper-1.sym
{
T 46800 48300 5 8 0 0 0 0 1
device=none
}
N 45400 48200 46800 48200 4
{
T 46400 48200 5 10 1 1 0 0 1
netname=A1
}
C 46800 48200 1 0 0 busripper-1.sym
{
T 46800 48600 5 8 0 0 0 0 1
device=none
}
N 42900 46100 41500 46100 4
{
T 41700 46100 5 10 1 1 0 0 1
netname=A9
}
C 41500 46100 1 90 0 busripper-1.sym
{
T 41100 46100 5 8 0 0 90 0 1
device=none
}
N 42900 46400 41500 46400 4
{
T 41700 46400 5 10 1 1 0 0 1
netname=A11
}
C 41500 46400 1 90 0 busripper-1.sym
{
T 41100 46400 5 8 0 0 90 0 1
device=none
}
N 42900 46700 41500 46700 4
{
T 41700 46700 5 10 1 1 0 0 1
netname=A13
}
C 41500 46700 1 90 0 busripper-1.sym
{
T 41100 46700 5 8 0 0 90 0 1
device=none
}
N 42900 47000 41500 47000 4
{
T 41700 47000 5 10 1 1 0 0 1
netname=A15
}
C 41500 47000 1 90 0 busripper-1.sym
{
T 41100 47000 5 8 0 0 90 0 1
device=none
}
N 45400 46100 46800 46100 4
{
T 46400 46100 5 10 1 1 0 0 1
netname=A8
}
C 46800 46100 1 0 0 busripper-1.sym
{
T 46800 46500 5 8 0 0 0 0 1
device=none
}
N 45400 46400 46800 46400 4
{
T 46400 46400 5 10 1 1 0 0 1
netname=A10
}
C 46800 46400 1 0 0 busripper-1.sym
{
T 46800 46800 5 8 0 0 0 0 1
device=none
}
N 45400 46700 46800 46700 4
{
T 46400 46700 5 10 1 1 0 0 1
netname=A12
}
C 46800 46700 1 0 0 busripper-1.sym
{
T 46800 47100 5 8 0 0 0 0 1
device=none
}
N 45400 47000 46800 47000 4
{
T 46400 47000 5 10 1 1 0 0 1
netname=A14
}
C 46800 47000 1 0 0 busripper-1.sym
{
T 46800 47400 5 8 0 0 0 0 1
device=none
}
N 42900 45500 41700 45500 4
{
T 41700 45500 5 10 1 1 0 0 1
netname=R/\_W\_
}
N 46600 45800 45400 45800 4
{
T 46200 45800 5 10 1 1 0 0 1
netname=RDY
}
N 46600 45500 45400 45500 4
{
T 46200 45500 5 10 1 1 0 0 1
netname=\_SO\_
}
N 42900 45800 41700 45800 4
{
T 41700 45800 5 10 1 1 0 0 1
netname=\_RESET\_
}
U 41300 45500 40400 45500 10 0
{
T 40400 45600 5 10 1 1 0 0 1
netname=DATA
}
U 41300 45500 41300 44000 10 -1
N 42900 45200 41500 45200 4
{
T 41700 45200 5 10 1 1 0 0 1
netname=D7
}
C 41500 45200 1 180 0 busripper-1.sym
{
T 41500 44800 5 8 0 0 180 0 1
device=none
}
N 42900 44900 41500 44900 4
{
T 41700 44900 5 10 1 1 0 0 1
netname=D5
}
C 41500 44900 1 180 0 busripper-1.sym
{
T 41500 44500 5 8 0 0 180 0 1
device=none
}
N 42900 44600 41500 44600 4
{
T 41700 44600 5 10 1 1 0 0 1
netname=D3
}
C 41500 44600 1 180 0 busripper-1.sym
{
T 41500 44200 5 8 0 0 180 0 1
device=none
}
N 42900 44300 41500 44300 4
{
T 41700 44300 5 10 1 1 0 0 1
netname=D1
}
C 41500 44300 1 180 0 busripper-1.sym
{
T 41500 43900 5 8 0 0 180 0 1
device=none
}
U 47900 45500 47000 45500 10 0
{
T 47400 45600 5 10 1 1 0 0 1
netname=DATA
}
U 47000 45500 47000 44000 10 -1
N 45400 45200 46800 45200 4
{
T 46400 45200 5 10 1 1 0 0 1
netname=D6
}
C 46800 45200 1 270 0 busripper-1.sym
{
T 47200 45200 5 8 0 0 270 0 1
device=none
}
N 45400 44900 46800 44900 4
{
T 46400 44900 5 10 1 1 0 0 1
netname=D4
}
C 46800 44900 1 270 0 busripper-1.sym
{
T 47200 44900 5 8 0 0 270 0 1
device=none
}
N 45400 44600 46800 44600 4
{
T 46400 44600 5 10 1 1 0 0 1
netname=D2
}
C 46800 44600 1 270 0 busripper-1.sym
{
T 47200 44600 5 8 0 0 270 0 1
device=none
}
N 45400 44300 46800 44300 4
{
T 46400 44300 5 10 1 1 0 0 1
netname=D0
}
C 46800 44300 1 270 0 busripper-1.sym
{
T 47200 44300 5 8 0 0 270 0 1
device=none
}
N 42900 44000 41700 44000 4
{
T 41700 44000 5 10 1 1 0 0 1
netname=\_IRQ\_
}
N 46600 44000 45400 44000 4
{
T 46300 44000 5 10 1 1 0 0 1
netname=\_NMI\_
}
N 51400 49300 50200 49300 4
{
T 50200 49300 5 10 1 1 0 0 1
netname=CLK_E
}
N 51400 48700 50200 48700 4
{
T 50200 48700 5 10 1 1 0 0 1
netname=\_RESET\_
}
N 51400 48100 50200 48100 4
{
T 50200 48100 5 10 1 1 0 0 1
netname=\_IRQ\_
}
N 51400 48400 50200 48400 4
{
T 50200 48400 5 10 1 1 0 0 1
netname=\_NMI\_
}
N 45400 43700 46500 43700 4
{
T 45500 43700 5 10 1 1 0 0 1
netname=GPIO
}
C 40900 43600 1 0 0 resistor-1.sym
{
T 41200 44000 5 10 0 0 0 0 1
device=RESISTOR
T 41000 43400 5 10 1 1 0 0 1
refdes=R1
T 41000 43200 5 10 1 1 0 0 1
value=33
T 41300 43200 5 10 1 1 0 0 1
footprint=0805
}
N 41800 43700 42900 43700 4
{
T 41900 43700 5 10 1 1 0 0 1
netname=CLK_E_R
}
N 40200 43700 40900 43700 4
{
T 40200 43700 5 10 1 1 0 0 1
netname=CLK_E
}
T 50100 40700 9 16 1 0 0 0 1
65C02 RETRO SHIELD FOR ARDUINO MEGA
T 49500 41000 9 10 1 0 0 0 2
Released under the Creative Commons Attribution Share-Alike 4.0 License
https://creativecommons.org/licenses/by-sa/4.0/
T 54000 40100 9 10 1 0 0 0 1
ERTURK KOCALAR
T 54000 40400 9 10 1 0 0 0 1
REV A - 2019/01/27
T 50900 40100 9 10 1 0 0 0 1
1
T 51600 40100 9 10 1 0 0 0 1
1
T 50800 40400 9 10 1 0 0 0 1
K65C02.SCH
N 51400 47500 50200 47500 4
{
T 50200 47500 5 10 1 1 0 0 1
netname=RDY
}
N 51400 47200 50200 47200 4
{
T 50200 47200 5 10 1 1 0 0 1
netname=\_SO\_
}
U 49800 46800 48900 46800 10 0
{
T 48900 46900 5 10 1 1 0 0 1
netname=DATA
}
U 49800 46800 49800 44200 10 -1
N 51400 46600 50000 46600 4
{
T 50200 46600 5 10 1 1 0 0 1
netname=D7
}
C 50000 46600 1 180 0 busripper-1.sym
{
T 50000 46200 5 8 0 0 180 0 1
device=none
}
N 51400 46300 50000 46300 4
{
T 50200 46300 5 10 1 1 0 0 1
netname=D6
}
C 50000 46300 1 180 0 busripper-1.sym
{
T 50000 45900 5 8 0 0 180 0 1
device=none
}
N 51400 46000 50000 46000 4
{
T 50200 46000 5 10 1 1 0 0 1
netname=D5
}
C 50000 46000 1 180 0 busripper-1.sym
{
T 50000 45600 5 8 0 0 180 0 1
device=none
}
N 51400 45700 50000 45700 4
{
T 50200 45700 5 10 1 1 0 0 1
netname=D4
}
C 50000 45700 1 180 0 busripper-1.sym
{
T 50000 45300 5 8 0 0 180 0 1
device=none
}
N 51400 45400 50000 45400 4
{
T 50200 45400 5 10 1 1 0 0 1
netname=D3
}
C 50000 45400 1 180 0 busripper-1.sym
{
T 50000 45000 5 8 0 0 180 0 1
device=none
}
N 51400 45100 50000 45100 4
{
T 50200 45100 5 10 1 1 0 0 1
netname=D2
}
C 50000 45100 1 180 0 busripper-1.sym
{
T 50000 44700 5 8 0 0 180 0 1
device=none
}
N 51400 44800 50000 44800 4
{
T 50200 44800 5 10 1 1 0 0 1
netname=D1
}
C 50000 44800 1 180 0 busripper-1.sym
{
T 50000 44400 5 8 0 0 180 0 1
device=none
}
N 51400 44500 50000 44500 4
{
T 50200 44500 5 10 1 1 0 0 1
netname=D0
}
C 50000 44500 1 180 0 busripper-1.sym
{
T 50000 44100 5 8 0 0 180 0 1
device=none
}
N 55900 43200 54700 43200 4
{
T 55500 43200 5 10 1 1 0 0 1
netname=R/\_W\_
}
C 55000 42800 1 0 0 resistor-1.sym
{
T 55300 43200 5 10 0 0 0 0 1
device=RESISTOR
T 55100 42600 5 10 1 1 0 0 1
refdes=R3
T 55100 42400 5 10 1 1 0 0 1
value=680
T 55500 42400 5 10 1 1 0 0 1
footprint=0805
}
C 56000 42800 1 270 0 led-1.sym
{
T 56600 42000 5 10 0 0 270 0 1
device=LED
T 56500 42600 5 10 1 1 0 0 1
refdes=LED1
T 56800 42000 5 10 0 0 270 0 1
symversion=0.1
T 56000 42800 5 10 0 0 0 0 1
footprint=LED3
}
C 56100 41500 1 0 0 gnd-1.sym
N 54700 42900 55000 42900 4
{
T 54700 42900 5 10 0 0 0 0 1
netname=SYNC_R
}
N 55900 42900 56200 42900 4
{
T 55900 42900 5 10 0 0 0 0 1
netname=SYNC_LED
}
N 56200 42900 56200 42800 4
{
T 56200 42900 5 10 0 0 0 0 1
netname=SYNC_LED
}
N 56200 41900 56200 41800 4
T 56500 42400 9 10 1 0 0 0 1
RED
U 56300 43900 56300 49100 10 1
U 56300 49100 56800 49100 10 0
{
T 56300 49200 5 10 1 1 0 0 1
netname=ADDR
}
N 54700 47400 56100 47400 4
{
T 55700 47400 5 10 1 1 0 0 1
netname=A12
}
C 56100 47400 1 0 0 busripper-1.sym
{
T 56100 47800 5 8 0 0 0 0 1
device=none
}
N 54700 47700 56100 47700 4
{
T 55700 47700 5 10 1 1 0 0 1
netname=A13
}
C 56100 47700 1 0 0 busripper-1.sym
{
T 56100 48100 5 8 0 0 0 0 1
device=none
}
N 54700 48000 56100 48000 4
{
T 55700 48000 5 10 1 1 0 0 1
netname=A14
}
C 56100 48000 1 0 0 busripper-1.sym
{
T 56100 48400 5 8 0 0 0 0 1
device=none
}
N 54700 48300 56100 48300 4
{
T 55700 48300 5 10 1 1 0 0 1
netname=A15
}
C 56100 48300 1 0 0 busripper-1.sym
{
T 56100 48700 5 8 0 0 0 0 1
device=none
}
N 54700 46500 56100 46500 4
{
T 55700 46500 5 10 1 1 0 0 1
netname=A9
}
C 56100 46500 1 0 0 busripper-1.sym
{
T 56100 46900 5 8 0 0 0 0 1
device=none
}
N 54700 46800 56100 46800 4
{
T 55700 46800 5 10 1 1 0 0 1
netname=A10
}
C 56100 46800 1 0 0 busripper-1.sym
{
T 56100 47200 5 8 0 0 0 0 1
device=none
}
N 54700 47100 56100 47100 4
{
T 55700 47100 5 10 1 1 0 0 1
netname=A11
}
C 56100 47100 1 0 0 busripper-1.sym
{
T 56100 47500 5 8 0 0 0 0 1
device=none
}
N 54700 46200 56100 46200 4
{
T 55700 46200 5 10 1 1 0 0 1
netname=A8
}
N 54700 45900 56100 45900 4
{
T 55700 45900 5 10 1 1 0 0 1
netname=A7
}
N 54700 45600 56100 45600 4
{
T 55700 45600 5 10 1 1 0 0 1
netname=A6
}
N 54700 45300 56100 45300 4
{
T 55700 45300 5 10 1 1 0 0 1
netname=A5
}
N 54700 45000 56100 45000 4
{
T 55700 45000 5 10 1 1 0 0 1
netname=A4
}
N 54700 44700 56100 44700 4
{
T 55700 44700 5 10 1 1 0 0 1
netname=A3
}
N 54700 44400 56100 44400 4
{
T 55700 44400 5 10 1 1 0 0 1
netname=A2
}
N 54700 44100 56100 44100 4
{
T 55700 44100 5 10 1 1 0 0 1
netname=A1
}
N 54700 43800 56100 43800 4
{
T 55700 43800 5 10 1 1 0 0 1
netname=A0
}
C 56100 46200 1 0 0 busripper-1.sym
{
T 56100 46600 5 8 0 0 0 0 1
device=none
}
C 56100 45900 1 0 0 busripper-1.sym
{
T 56100 46300 5 8 0 0 0 0 1
device=none
}
C 56100 45600 1 0 0 busripper-1.sym
{
T 56100 46000 5 8 0 0 0 0 1
device=none
}
C 56100 45300 1 0 0 busripper-1.sym
{
T 56100 45700 5 8 0 0 0 0 1
device=none
}
C 56100 45000 1 0 0 busripper-1.sym
{
T 56100 45400 5 8 0 0 0 0 1
device=none
}
C 56100 44700 1 0 0 busripper-1.sym
{
T 56100 45100 5 8 0 0 0 0 1
device=none
}
C 56100 44400 1 0 0 busripper-1.sym
{
T 56100 44800 5 8 0 0 0 0 1
device=none
}
C 56100 44100 1 0 0 busripper-1.sym
{
T 56100 44500 5 8 0 0 0 0 1
device=none
}
C 56100 43800 1 0 0 busripper-1.sym
{
T 56100 44200 5 8 0 0 0 0 1
device=none
}
C 49900 49600 1 0 0 gnd-1.sym
C 51100 50200 1 180 0 capacitor-1.sym
{
T 50500 50600 5 10 1 1 0 0 1
refdes=C3
T 50500 50400 5 10 1 1 0 0 1
value=22PF
T 50500 50200 5 10 1 1 0 0 1
footprint=0805
T 50900 49500 5 10 0 0 180 0 1
device=CAPACITOR
T 50900 49300 5 10 0 0 180 0 1
symversion=0.1
}
N 50000 49900 50000 50000 4
N 50000 50000 50200 50000 4
N 51100 50000 51300 50000 4
N 51300 50000 51300 49300 4
C 48200 43200 1 0 1 connector2-1.sym
{
T 48000 44200 5 10 0 0 0 6 1
device=CONNECTOR_2
T 47900 44200 5 10 1 1 0 6 1
refdes=J2
T 47700 43100 5 10 1 1 180 6 1
footprint=HEADER2_1
}
C 46400 42800 1 0 0 gnd-1.sym
N 46500 43400 46500 43100 4
T 47700 44000 9 10 1 0 0 0 1
Additional GPIO.
C 50300 43200 1 0 0 resistor-1.sym
{
T 50600 43600 5 10 0 0 0 0 1
device=RESISTOR
T 50400 43000 5 10 1 1 0 0 1
refdes=R2
T 50400 42800 5 10 1 1 0 0 1
value=0
T 50700 42800 5 10 1 1 0 0 1
footprint=0805
T 50400 42600 5 10 1 1 0 0 1
bomoption=NOSTUFF
}
C 49900 43500 1 0 0 5V-plus-1.sym
N 50300 43300 50100 43300 4
N 50100 43300 50100 43500 4
N 51200 43300 51400 43300 4
T 40500 40800 9 10 1 0 0 0 3
WDC65C02 support:
- Install R2 [pin36.NC becomes BE and needs pull-up]
- Remove R4 [pin1.VPB is output instead of GND]
T 52100 43300 9 10 1 0 0 0 1
(BE)
C 51900 41900 1 0 0 resistor-1.sym
{
T 52200 42300 5 10 0 0 0 0 1
device=RESISTOR
T 52000 41700 5 10 1 1 0 0 1
refdes=R4
T 52000 41500 5 10 1 1 0 0 1
value=0
T 52300 41500 5 10 1 1 0 0 1
footprint=0805
}
C 51600 41600 1 0 0 gnd-1.sym
N 52800 42000 52900 42000 4
N 52900 42000 52900 42100 4
N 51900 42000 51700 42000 4
N 51700 42000 51700 41900 4
T 49300 42100 9 10 1 0 0 0 1
WDC Support. See Note.
G 45500 40853 900 947 0 0 0
./symbols/osha-logo.svg
