v 20130925 2
B 300 0 2400 2100 3 0 0 0 -1 -1 0 -1 -1 -1 -1 -1
P 0 1500 300 1500 1 0 0
{
T 0 1500 5 10 0 0 0 0 1
pintype=in
T 355 1495 5 10 1 1 0 0 1
pinlabel=\_CS\_
T 205 1545 5 10 1 1 0 6 1
pinnumber=1
T 0 1500 5 10 0 0 0 0 1
pinseq=1
}
P 0 1200 300 1200 1 0 0
{
T 0 1200 5 10 0 0 0 0 1
pintype=io
T 355 1195 5 10 1 1 0 0 1
pinlabel=SO/SIO1
T 205 1245 5 10 1 1 0 6 1
pinnumber=2
T 0 1200 5 10 0 0 0 0 1
pinseq=3
}
P 0 900 300 900 1 0 0
{
T 0 900 5 10 0 0 0 0 1
pintype=io
T 355 895 5 10 1 1 0 0 1
pinlabel=SIO2
T 205 945 5 10 1 1 0 6 1
pinnumber=3
T 0 900 5 10 0 0 0 0 1
pinseq=5
}
P 0 600 300 600 1 0 0
{
T 0 600 5 10 0 0 0 0 1
pintype=pwr
T 355 595 5 10 1 1 0 0 1
pinlabel=VSS
T 205 645 5 10 1 1 0 6 1
pinnumber=4
T 0 600 5 10 0 0 0 0 1
pinseq=7
}
P 3000 1500 2700 1500 1 0 0
{
T 3000 1500 5 10 0 0 0 0 1
pintype=pwr
T 2645 1495 5 10 1 1 0 6 1
pinlabel=VCC
T 2795 1545 5 10 1 1 0 0 1
pinnumber=8
T 3000 1500 5 10 0 0 0 0 1
pinseq=2
}
P 3000 1200 2700 1200 1 0 0
{
T 3000 1200 5 10 0 0 0 0 1
pintype=io
T 2645 1195 5 10 1 1 0 6 1
pinlabel=\_HOLD\_/SIO3
T 2795 1245 5 10 1 1 0 0 1
pinnumber=7
T 3000 1200 5 10 0 0 0 0 1
pinseq=4
}
P 3000 900 2700 900 1 0 0
{
T 3000 900 5 10 0 0 0 0 1
pintype=in
T 3000 900 5 10 0 0 0 0 1
pinseq=6
T 2645 895 5 10 1 1 0 6 1
pinlabel=SCK
T 2795 945 5 10 1 1 0 0 1
pinnumber=6
}
P 3000 600 2700 600 1 0 0
{
T 3000 600 5 10 0 0 0 0 1
pintype=io
T 3000 600 5 10 0 0 0 0 1
pinseq=8
T 2645 595 5 10 1 1 0 6 1
pinlabel=SI/SIO0
T 2795 645 5 10 1 1 0 0 1
pinnumber=5
}
T 1100 1800 8 10 1 1 0 0 1
device=23LC1024
T 400 100 8 10 1 1 0 0 1
description=128 KBytes SPI RAM
T 1295 1600 8 10 1 1 0 0 1
footprint=DIP8
T 2495 100 8 10 0 1 0 0 1
numslots=1
