v 20130925 2
C 40000 40000 0 0 0 title-B.sym
C 41600 44000 1 0 0 megahdr2x18-1.sym
{
T 42300 50300 5 10 1 1 0 0 1
device=MEGAHDR2X18
T 42300 50100 5 10 1 1 0 0 1
footprint=HEADER36_1
T 42800 50500 5 10 1 1 0 0 1
refdes=J1
}
C 41100 49800 1 0 0 5V-plus-1.sym
C 44200 49800 1 0 0 5V-plus-1.sym
C 41200 43800 1 0 0 gnd-1.sym
C 44300 43800 1 0 0 gnd-1.sym
N 44100 44400 44400 44400 4
N 44400 44400 44400 44100 4
N 41300 44100 41300 44400 4
N 41300 44400 41600 44400 4
N 44100 49500 44400 49500 4
N 44400 49500 44400 49800 4
C 55000 49100 1 270 0 led-1.sym
{
T 55600 48300 5 10 0 0 90 8 1
device=LED
T 55800 48300 5 10 0 0 90 8 1
symversion=0.1
T 55000 49100 5 10 0 0 180 8 1
footprint=LED3
T 56100 48900 5 10 1 1 0 8 1
refdes=P15V
}
G 48200 40453 900 947 0 0 0
./symbols/osha-logo.svg
N 48600 43400 51100 43400 4
{
T 48700 43400 5 10 1 1 0 0 1
netname=D0_15V
}
N 48600 43100 51100 43100 4
{
T 48700 43100 5 10 1 1 0 0 1
netname=D1_15V
}
N 48600 42800 51100 42800 4
{
T 48700 42800 5 10 1 1 0 0 1
netname=D2_15V
}
N 48600 42500 51100 42500 4
{
T 48700 42500 5 10 1 1 0 0 1
netname=D3_15V
}
N 53700 44300 56200 44300 4
{
T 54800 44300 5 10 1 1 0 0 1
netname=CMROM_4004
}
N 53700 44900 56200 44900 4
{
T 54800 44900 5 10 1 1 0 0 1
netname=SYNC_4004
}
N 53700 43700 56200 43700 4
{
T 54800 43700 5 10 1 1 0 0 1
netname=CMRAM0_4004
}
N 53700 43400 56200 43400 4
{
T 54800 43400 5 10 1 1 0 0 1
netname=CMRAM1_4004
}
N 53700 43100 56200 43100 4
{
T 54800 43100 5 10 1 1 0 0 1
netname=CMRAM2_4004
}
N 53700 42800 56200 42800 4
{
T 54800 42800 5 10 1 1 0 0 1
netname=CMRAM3_4004
}
N 51100 44900 48600 44900 4
{
T 48700 44900 5 10 1 1 0 0 1
netname=PHI1_15V
}
N 48600 44600 51100 44600 4
{
T 48700 44600 5 10 1 1 0 0 1
netname=PHI2_15V
}
N 48600 44300 51100 44300 4
{
T 48700 44300 5 10 1 1 0 0 1
netname=RESET_15V
}
C 51100 41900 1 0 0 4004-2.sym
{
T 53000 45400 5 10 1 1 0 0 1
device=4004
T 52800 42100 5 10 1 1 0 0 1
footprint=DIP16_ZIF
T 51400 45400 5 10 1 1 0 0 1
refdes=U1
}
C 52300 41600 1 0 0 gnd-1.sym
N 52400 42000 52400 41900 4
N 52400 45700 52400 45600 4
N 48600 44000 51100 44000 4
{
T 48700 44000 5 10 1 1 0 0 1
netname=TEST_15V
}
C 43700 40900 1 180 1 led-1.sym
{
T 44500 40300 5 10 0 0 0 2 1
device=LED
T 44500 40100 5 10 0 0 0 2 1
symversion=0.1
T 43700 40900 5 10 0 0 90 6 1
footprint=LED3
T 44900 40800 5 10 1 1 180 2 1
refdes=Q0
}
C 42400 40600 1 0 0 resistor-1.sym
{
T 42700 41000 5 10 0 0 0 0 1
device=RESISTOR
T 43000 40400 5 10 0 1 0 0 1
footprint=0805
T 42300 40800 5 10 1 1 0 0 1
refdes=R12
T 43100 40800 5 10 1 1 0 0 1
value=680
}
C 43700 41600 1 180 1 led-1.sym
{
T 44500 41000 5 10 0 0 0 2 1
device=LED
T 44500 40800 5 10 0 0 0 2 1
symversion=0.1
T 43700 41600 5 10 0 0 90 6 1
footprint=LED3
T 44900 41500 5 10 1 1 180 2 1
refdes=Q1
}
C 42400 41300 1 0 0 resistor-1.sym
{
T 42700 41700 5 10 0 0 0 0 1
device=RESISTOR
T 43000 41100 5 10 0 1 0 0 1
footprint=0805
T 42300 41500 5 10 1 1 0 0 1
refdes=R13
T 43100 41500 5 10 1 1 0 0 1
value=680
}
C 43700 42300 1 180 1 led-1.sym
{
T 44500 41700 5 10 0 0 0 2 1
device=LED
T 44500 41500 5 10 0 0 0 2 1
symversion=0.1
T 43700 42300 5 10 0 0 90 6 1
footprint=LED3
T 44900 42200 5 10 1 1 180 2 1
refdes=Q2
}
C 42400 42000 1 0 0 resistor-1.sym
{
T 42700 42400 5 10 0 0 0 0 1
device=RESISTOR
T 43000 41800 5 10 0 1 0 0 1
footprint=0805
T 42300 42200 5 10 1 1 0 0 1
refdes=R14
T 43100 42200 5 10 1 1 0 0 1
value=680
}
C 43700 43000 1 180 1 led-1.sym
{
T 44500 42400 5 10 0 0 0 2 1
device=LED
T 44500 42200 5 10 0 0 0 2 1
symversion=0.1
T 43700 43000 5 10 0 0 90 6 1
footprint=LED3
T 44900 42900 5 10 1 1 180 2 1
refdes=Q3
}
C 42400 42700 1 0 0 resistor-1.sym
{
T 42700 43100 5 10 0 0 0 0 1
device=RESISTOR
T 43000 42500 5 10 0 1 0 0 1
footprint=0805
T 42300 42900 5 10 1 1 0 0 1
refdes=R15
T 43100 42900 5 10 1 1 0 0 1
value=680
}
N 45200 40500 45200 42800 4
C 45100 40200 1 0 0 gnd-1.sym
C 48500 47300 1 270 1 capacitor-1.sym
{
T 49200 47500 5 10 0 0 90 2 1
device=CAPACITOR
T 49400 47500 5 10 0 0 90 2 1
symversion=0.1
T 48400 47900 5 10 1 1 0 6 1
refdes=C3
T 48400 47700 5 10 1 1 0 6 1
value=4.7uF
T 48400 47500 5 10 1 1 0 6 1
footprint=0805
T 48400 47300 5 10 1 1 0 6 1
voltage=25V
}
C 48600 46800 1 0 0 gnd-1.sym
N 48700 47300 48700 47100 4
N 48700 48200 48700 48700 4
C 48500 48700 1 0 0 5V-plus-1.sym
N 50800 50200 55200 50200 4
N 55200 50100 55200 50300 4
C 55100 46800 1 0 0 gnd-1.sym
N 55200 49200 55200 49100 4
C 55100 49200 1 270 1 resistor-1.sym
{
T 55500 49500 5 10 0 0 90 2 1
device=RESISTOR
T 55400 49900 5 10 1 1 180 6 1
refdes=R20
T 55400 49700 5 10 1 1 180 6 1
value=3.1K
T 55400 49500 5 10 1 1 180 6 1
footprint=0805
}
C 49500 46300 1 0 0 roe0515s-1.sym
{
T 50400 48200 5 10 1 1 0 0 1
device=ROE-0515S
T 50400 48000 5 10 1 1 0 0 1
footprint=JUMPER4
T 50400 48400 5 10 1 1 0 0 1
refdes=U9
}
C 49200 46800 1 0 0 gnd-1.sym
N 49300 47100 49300 47300 4
N 49500 47300 49300 47300 4
C 52200 46800 1 0 0 gnd-1.sym
N 52300 47100 52300 47300 4
N 52100 47300 52300 47300 4
N 49500 47600 49300 47600 4
N 49300 47600 49300 49900 4
N 52100 47600 52300 47600 4
N 52300 47600 52300 49900 4
N 41600 45000 40200 45000 4
{
T 40300 45000 5 10 1 1 0 0 1
netname=TEST
}
N 41600 45600 40200 45600 4
{
T 40300 45600 5 10 1 1 0 0 1
netname=CPU_D3_5V
}
N 41600 47100 40200 47100 4
{
T 40300 47100 5 10 1 1 0 0 1
netname=ARDUINO_D1
}
N 41600 47400 40200 47400 4
{
T 40300 47400 5 10 1 1 0 0 1
netname=ARDUINO_D3
}
N 40200 47700 41600 47700 4
{
T 40300 47700 5 10 1 1 0 0 1
netname=RAM_Q1_5V
}
N 40200 48000 41600 48000 4
{
T 40300 48000 5 10 1 1 0 0 1
netname=RAM_Q3_5V
}
N 40200 46800 41600 46800 4
{
T 40300 46800 5 10 1 1 0 0 1
netname=DRIVE_DBUS
}
N 44100 48600 45500 48600 4
{
T 44300 48600 5 10 1 1 0 0 1
netname=SYNC_5V
}
N 40200 48900 41600 48900 4
{
T 40300 48900 5 10 1 1 0 0 1
netname=CMRAM2_5V
}
N 40200 49200 41600 49200 4
{
T 40300 49200 5 10 1 1 0 0 1
netname=CMRAM0_5V
}
N 41600 45300 40200 45300 4
{
T 40300 45300 5 10 1 1 0 0 1
netname=CPU_D1_5V
}
N 40200 46500 41600 46500 4
{
T 40300 46500 5 10 1 1 0 0 1
netname=PHI1
}
N 41300 49500 41600 49500 4
N 41300 49800 41300 49500 4
N 41600 44700 40200 44700 4
{
T 40300 44700 5 10 1 1 0 0 1
netname=RESET
}
N 45500 45600 44100 45600 4
{
T 44300 45600 5 10 1 1 0 0 1
netname=CPU_D2_5V
}
N 44100 45300 45500 45300 4
{
T 44300 45300 5 10 1 1 0 0 1
netname=CPU_D0_5V
}
N 44100 47400 45500 47400 4
{
T 44300 47400 5 10 1 1 0 0 1
netname=ARDUINO_D2
}
N 44100 47100 45500 47100 4
{
T 44300 47100 5 10 1 1 0 0 1
netname=ARDUINO_D0
}
N 41600 48600 40200 48600 4
{
T 40400 48600 5 10 1 1 0 0 1
netname=CMROM_5V
}
N 45500 48900 44100 48900 4
{
T 44300 48900 5 10 1 1 0 0 1
netname=CMRAM3_5V
}
N 45500 49200 44100 49200 4
{
T 44300 49200 5 10 1 1 0 0 1
netname=CMRAM1_5V
}
N 45500 47700 44100 47700 4
{
T 44300 47700 5 10 1 1 0 0 1
netname=RAM_Q0_5V
}
N 45500 48000 44100 48000 4
{
T 44300 48000 5 10 1 1 0 0 1
netname=RAM_Q2_5V
}
N 44100 46500 45600 46500 4
{
T 45100 46500 5 10 1 1 0 0 1
netname=PHI2
}
C 55000 50300 1 0 0 generic-power.sym
{
T 55200 50550 5 10 1 1 0 3 1
net=P15V:1
}
C 52200 45700 1 0 0 generic-power.sym
{
T 52400 45950 5 10 1 1 0 3 1
net=P15V:1
}
N 42400 42800 40900 42800 4
{
T 41000 42800 5 10 1 1 0 0 1
netname=RAM_Q3_5V
}
N 42400 42100 40900 42100 4
{
T 41000 42100 5 10 1 1 0 0 1
netname=RAM_Q2_5V
}
N 42400 41400 40900 41400 4
{
T 41000 41400 5 10 1 1 0 0 1
netname=RAM_Q1_5V
}
N 42400 40700 40900 40700 4
{
T 41000 40700 5 10 1 1 0 0 1
netname=RAM_Q0_5V
}
C 50200 49800 1 270 0 header3-1.sym
{
T 50850 48800 5 10 0 0 270 0 1
device=HEADER3
T 51500 49400 5 10 1 1 270 0 1
refdes=J2
T 50500 48900 5 10 1 1 0 0 1
footprint=JUMPER3
}
N 50800 49800 50800 50200 4
N 52300 49900 51200 49900 4
N 51200 49900 51200 49800 4
C 53800 47200 1 270 1 resistor-1.sym
{
T 54200 47500 5 10 0 0 90 2 1
device=RESISTOR
T 54100 47900 5 10 1 1 180 6 1
refdes=R10
T 54100 47700 5 10 1 1 180 6 1
value=10K
T 54100 47500 5 10 1 1 180 6 1
footprint=0805
}
C 53800 46800 1 0 0 gnd-1.sym
N 53900 47200 53900 47100 4
N 53900 48100 53900 48300 4
N 53900 48300 52300 48300 4
N 50400 49800 50400 49900 4
N 50400 49900 49300 49900 4
N 48700 48400 49300 48400 4
C 53000 47200 1 90 0 capacitor-1.sym
{
T 52300 47400 5 10 0 0 90 0 1
device=CAPACITOR
T 52100 47400 5 10 0 0 90 0 1
symversion=0.1
T 53100 47800 5 10 1 1 0 0 1
refdes=C4
T 53100 47600 5 10 1 1 0 0 1
value=4.7uF
T 53100 47400 5 10 1 1 0 0 1
footprint=0805
T 53100 47200 5 10 1 1 0 0 1
voltage=25V
}
C 52700 46800 1 0 0 gnd-1.sym
N 52800 47200 52800 47100 4
N 52800 48100 52800 48300 4
N 55200 47100 55200 47200 4
N 55200 48100 55200 48200 4
C 55000 48100 1 270 0 diode-3.sym
{
T 55550 47650 5 10 0 0 270 0 1
device=DIODE
T 55550 47650 5 10 1 1 0 0 1
refdes=D1
T 55500 47200 5 10 1 1 0 0 1
footprint=DIODE_TH_400
T 55500 47400 5 10 1 1 0 0 1
value=5V6
}
T 50600 40700 9 16 1 0 0 0 1
4004 RETRO SHIELD FOR ARDUINO MEGA
T 50000 41000 9 10 1 0 0 0 2
Released under the Creative Commons Attribution Share-Alike 4.0 License
https://creativecommons.org/licenses/by-sa/4.0/
T 54000 40100 9 10 1 0 0 0 1
ERTURK KOCALAR
T 54000 40400 9 10 1 0 0 0 1
REV B - 2020/09/18
T 50900 40100 9 10 1 0 0 0 1
1
T 51600 40100 9 10 1 0 0 0 1
1
T 50800 40400 9 10 1 0 0 0 1
K4004.SCH
T 56000 48700 9 10 1 0 180 0 1
RED
T 44400 40300 9 10 1 0 0 0 1
RED
T 44400 41000 9 10 1 0 0 0 1
RED
T 44400 41700 9 10 1 0 0 0 1
RED
T 44400 42400 9 10 1 0 0 0 1
RED
T 52200 44000 9 10 1 0 0 0 1
CPU
T 49800 50500 9 14 1 0 0 0 1
5V -> 15V BOOST CIRCUIT
T 45400 40600 9 10 1 0 0 0 2
Arduino drives
RAM Q Outputs
T 49100 50000 9 10 1 0 0 0 1
15V or 5V option
T 53300 48500 9 10 1 0 0 0 2
Dummy Load
For Regulator
T 49600 46300 9 10 1 0 0 0 1
4004 requires 40mA max.
T 53700 49500 9 10 1 0 0 0 2
LED turns on
w/ 15V only.
N 44600 42800 45200 42800 4
N 44600 42100 45200 42100 4
N 44600 41400 45200 41400 4
N 44600 40700 45200 40700 4
N 43300 42800 43700 42800 4
N 43300 42100 43700 42100 4
N 43300 41400 43700 41400 4
N 43300 40700 43700 40700 4
