v 20130925 2
C 40000 40000 0 0 0 title-B.sym
C 42900 43000 1 0 0 megahdr2x18-1.sym
{
T 43600 49300 5 10 1 1 0 0 1
device=MEGAHDR2X18
T 43600 49100 5 10 1 1 0 0 1
footprint=HEADER36_1
T 43600 49500 5 10 1 1 0 0 1
refdes=J1
}
C 42400 48800 1 0 0 5V-plus-1.sym
C 45500 48800 1 0 0 5V-plus-1.sym
C 53200 49100 1 0 0 5V-plus-1.sym
C 42500 42800 1 0 0 gnd-1.sym
C 45600 42800 1 0 0 gnd-1.sym
C 53300 42400 1 0 0 gnd-1.sym
N 53400 48900 53400 49100 4
N 53400 42900 53400 42700 4
N 45400 43400 45700 43400 4
N 45700 43400 45700 43100 4
N 42600 43100 42600 43400 4
N 42600 43400 42900 43400 4
N 42600 48800 42600 48500 4
N 42600 48500 42900 48500 4
N 45400 48500 45700 48500 4
N 45700 48500 45700 48800 4
C 47400 40800 1 90 0 capacitor-1.sym
{
T 46700 41000 5 10 0 0 90 0 1
device=CAPACITOR
T 47500 41400 5 10 1 1 0 0 1
refdes=C1
T 46500 41000 5 10 0 0 90 0 1
symversion=0.1
T 47500 41200 5 10 1 1 0 0 1
value=100NF
T 47500 41000 5 10 1 1 0 0 1
footprint=0805
}
C 48500 40800 1 90 0 capacitor-1.sym
{
T 47800 41000 5 10 0 0 90 0 1
device=CAPACITOR
T 48600 41400 5 10 1 1 0 0 1
refdes=C2
T 47600 41000 5 10 0 0 90 0 1
symversion=0.1
T 48600 41200 5 10 1 1 0 0 1
value=100NF
T 48600 41000 5 10 1 1 0 0 1
footprint=0805
}
C 47000 41900 1 0 0 5V-plus-1.sym
C 47100 40300 1 0 0 gnd-1.sym
C 48200 40300 1 0 0 gnd-1.sym
N 47200 40800 47200 40600 4
N 48300 40800 48300 40600 4
N 47200 41900 47200 41700 4
N 48300 41700 48300 41800 4
N 48300 41800 47200 41800 4
U 41300 49000 41300 46200 10 1
N 42900 48200 41500 48200 4
{
T 41700 48200 5 10 1 1 0 0 1
netname=A0
}
C 41500 48200 1 90 0 busripper-1.sym
{
T 41100 48200 5 8 0 0 90 0 1
device=none
}
N 42900 47900 41500 47900 4
{
T 41700 47900 5 10 1 1 0 0 1
netname=A2
}
C 41500 47900 1 90 0 busripper-1.sym
{
T 41100 47900 5 8 0 0 90 0 1
device=none
}
N 42900 47600 41500 47600 4
{
T 41700 47600 5 10 1 1 0 0 1
netname=A4
}
C 41500 47600 1 90 0 busripper-1.sym
{
T 41100 47600 5 8 0 0 90 0 1
device=none
}
N 42900 47300 41500 47300 4
{
T 41700 47300 5 10 1 1 0 0 1
netname=A6
}
C 41500 47300 1 90 0 busripper-1.sym
{
T 41100 47300 5 8 0 0 90 0 1
device=none
}
U 41300 49000 40400 49000 10 0
{
T 40400 49100 5 10 1 1 0 0 1
netname=ADDR
}
U 47000 46200 47000 49000 10 1
U 47000 49000 47900 49000 10 0
{
T 47400 49100 5 10 1 1 0 0 1
netname=ADDR
}
N 45400 47300 46800 47300 4
{
T 46400 47300 5 10 1 1 0 0 1
netname=A7
}
C 46800 47300 1 0 0 busripper-1.sym
{
T 46800 47700 5 8 0 0 0 0 1
device=none
}
N 45400 47600 46800 47600 4
{
T 46400 47600 5 10 1 1 0 0 1
netname=A5
}
C 46800 47600 1 0 0 busripper-1.sym
{
T 46800 48000 5 8 0 0 0 0 1
device=none
}
N 45400 47900 46800 47900 4
{
T 46400 47900 5 10 1 1 0 0 1
netname=A3
}
C 46800 47900 1 0 0 busripper-1.sym
{
T 46800 48300 5 8 0 0 0 0 1
device=none
}
N 45400 48200 46800 48200 4
{
T 46400 48200 5 10 1 1 0 0 1
netname=A1
}
C 46800 48200 1 0 0 busripper-1.sym
{
T 46800 48600 5 8 0 0 0 0 1
device=none
}
N 42900 46100 41500 46100 4
{
T 41700 46100 5 10 1 1 0 0 1
netname=A9
}
C 41500 46100 1 90 0 busripper-1.sym
{
T 41100 46100 5 8 0 0 90 0 1
device=none
}
N 42900 46400 41500 46400 4
{
T 41700 46400 5 10 1 1 0 0 1
netname=A11
}
C 41500 46400 1 90 0 busripper-1.sym
{
T 41100 46400 5 8 0 0 90 0 1
device=none
}
N 42900 46700 41500 46700 4
{
T 41700 46700 5 10 1 1 0 0 1
netname=A13
}
C 41500 46700 1 90 0 busripper-1.sym
{
T 41100 46700 5 8 0 0 90 0 1
device=none
}
N 42900 47000 41500 47000 4
{
T 41700 47000 5 10 1 1 0 0 1
netname=A15
}
C 41500 47000 1 90 0 busripper-1.sym
{
T 41100 47000 5 8 0 0 90 0 1
device=none
}
N 45400 46100 46800 46100 4
{
T 46400 46100 5 10 1 1 0 0 1
netname=A8
}
C 46800 46100 1 0 0 busripper-1.sym
{
T 46800 46500 5 8 0 0 0 0 1
device=none
}
N 45400 46400 46800 46400 4
{
T 46400 46400 5 10 1 1 0 0 1
netname=A10
}
C 46800 46400 1 0 0 busripper-1.sym
{
T 46800 46800 5 8 0 0 0 0 1
device=none
}
N 45400 46700 46800 46700 4
{
T 46400 46700 5 10 1 1 0 0 1
netname=A12
}
C 46800 46700 1 0 0 busripper-1.sym
{
T 46800 47100 5 8 0 0 0 0 1
device=none
}
N 45400 47000 46800 47000 4
{
T 46400 47000 5 10 1 1 0 0 1
netname=A14
}
C 46800 47000 1 0 0 busripper-1.sym
{
T 46800 47400 5 8 0 0 0 0 1
device=none
}
N 46600 45800 45400 45800 4
{
T 46200 45800 5 10 1 1 0 0 1
netname=\_WE\_
}
N 46600 45500 45400 45500 4
{
T 46200 45500 5 10 1 1 0 0 1
netname=LED2
}
N 42900 45800 41700 45800 4
{
T 41700 45800 5 10 1 1 0 0 1
netname=\_OE\_
}
U 41300 45500 40400 45500 10 0
{
T 40400 45600 5 10 1 1 0 0 1
netname=DATA
}
U 41300 45500 41300 44000 10 -1
N 42900 45200 41500 45200 4
{
T 41700 45200 5 10 1 1 0 0 1
netname=D7
}
C 41500 45200 1 180 0 busripper-1.sym
{
T 41500 44800 5 8 0 0 180 0 1
device=none
}
N 42900 44900 41500 44900 4
{
T 41700 44900 5 10 1 1 0 0 1
netname=D5
}
C 41500 44900 1 180 0 busripper-1.sym
{
T 41500 44500 5 8 0 0 180 0 1
device=none
}
N 42900 44600 41500 44600 4
{
T 41700 44600 5 10 1 1 0 0 1
netname=D3
}
C 41500 44600 1 180 0 busripper-1.sym
{
T 41500 44200 5 8 0 0 180 0 1
device=none
}
N 42900 44300 41500 44300 4
{
T 41700 44300 5 10 1 1 0 0 1
netname=D1
}
C 41500 44300 1 180 0 busripper-1.sym
{
T 41500 43900 5 8 0 0 180 0 1
device=none
}
U 47900 45500 47000 45500 10 0
{
T 47400 45600 5 10 1 1 0 0 1
netname=DATA
}
U 47000 45500 47000 44000 10 -1
N 45400 45200 46800 45200 4
{
T 46400 45200 5 10 1 1 0 0 1
netname=D6
}
C 46800 45200 1 270 0 busripper-1.sym
{
T 47200 45200 5 8 0 0 270 0 1
device=none
}
N 45400 44900 46800 44900 4
{
T 46400 44900 5 10 1 1 0 0 1
netname=D4
}
C 46800 44900 1 270 0 busripper-1.sym
{
T 47200 44900 5 8 0 0 270 0 1
device=none
}
N 45400 44600 46800 44600 4
{
T 46400 44600 5 10 1 1 0 0 1
netname=D2
}
C 46800 44600 1 270 0 busripper-1.sym
{
T 47200 44600 5 8 0 0 270 0 1
device=none
}
N 45400 44300 46800 44300 4
{
T 46400 44300 5 10 1 1 0 0 1
netname=D0
}
C 46800 44300 1 270 0 busripper-1.sym
{
T 47200 44300 5 8 0 0 270 0 1
device=none
}
N 42900 44000 41700 44000 4
{
T 41700 44000 5 10 1 1 0 0 1
netname=G28256
}
N 46300 44000 45100 44000 4
{
T 46000 44000 5 10 1 1 0 0 1
netname=G2864
}
T 50100 40700 9 16 1 0 0 0 1
EEPROM RETRO SHIELD FOR ARDUINO MEGA
T 49500 41000 9 10 1 0 0 0 2
Released under the Creative Commons Attribution Share-Alike 4.0 License
https://creativecommons.org/licenses/by-sa/4.0/
T 54000 40100 9 10 1 0 0 0 1
ERTURK KOCALAR
T 54000 40400 9 10 1 0 0 0 1
REV 0.1 - 2020/08/02
T 50900 40100 9 10 1 0 0 0 1
1
T 51600 40100 9 10 1 0 0 0 1
1
T 50800 40400 9 10 1 0 0 0 1
KEEPROM.SCH
U 50500 48500 49600 48500 10 0
{
T 49600 48600 5 10 1 1 0 0 1
netname=DATA
}
U 50500 48500 50500 45900 10 -1
N 52100 48300 50700 48300 4
{
T 50900 48300 5 10 1 1 0 0 1
netname=D0
}
C 50700 48300 1 180 0 busripper-1.sym
{
T 50700 47900 5 8 0 0 180 0 1
device=none
}
N 52100 48000 50700 48000 4
{
T 50900 48000 5 10 1 1 0 0 1
netname=D1
}
C 50700 48000 1 180 0 busripper-1.sym
{
T 50700 47600 5 8 0 0 180 0 1
device=none
}
N 52100 47700 50700 47700 4
{
T 50900 47700 5 10 1 1 0 0 1
netname=D2
}
C 50700 47700 1 180 0 busripper-1.sym
{
T 50700 47300 5 8 0 0 180 0 1
device=none
}
N 52100 47400 50700 47400 4
{
T 50900 47400 5 10 1 1 0 0 1
netname=D3
}
C 50700 47400 1 180 0 busripper-1.sym
{
T 50700 47000 5 8 0 0 180 0 1
device=none
}
N 52100 47100 50700 47100 4
{
T 50900 47100 5 10 1 1 0 0 1
netname=D4
}
C 50700 47100 1 180 0 busripper-1.sym
{
T 50700 46700 5 8 0 0 180 0 1
device=none
}
N 52100 46800 50700 46800 4
{
T 50900 46800 5 10 1 1 0 0 1
netname=D5
}
C 50700 46800 1 180 0 busripper-1.sym
{
T 50700 46400 5 8 0 0 180 0 1
device=none
}
N 52100 46500 50700 46500 4
{
T 50900 46500 5 10 1 1 0 0 1
netname=D6
}
C 50700 46500 1 180 0 busripper-1.sym
{
T 50700 46100 5 8 0 0 180 0 1
device=none
}
N 52100 46200 50700 46200 4
{
T 50900 46200 5 10 1 1 0 0 1
netname=D7
}
C 50700 46200 1 180 0 busripper-1.sym
{
T 50700 45800 5 8 0 0 180 0 1
device=none
}
N 55900 43400 54700 43400 4
{
T 55500 43400 5 10 1 1 0 0 1
netname=\_WE\_
}
C 49500 50200 1 0 0 resistor-1.sym
{
T 49800 50600 5 10 0 0 0 0 1
device=RESISTOR
T 49600 50000 5 10 1 1 0 0 1
refdes=R1
T 49600 49800 5 10 1 1 0 0 1
value=680
T 50000 49800 5 10 1 1 0 0 1
footprint=0805
}
C 50500 50100 1 0 0 led-1.sym
{
T 51300 50700 5 10 0 0 0 0 1
device=LED
T 50500 49900 5 10 1 1 0 0 1
refdes=LED1
T 51300 50900 5 10 0 0 0 0 1
symversion=0.1
T 50500 50100 5 10 0 0 90 0 1
footprint=LED3
}
N 48600 50300 49500 50300 4
{
T 48700 50300 5 10 1 1 0 0 1
netname=LED1
}
T 51100 49900 9 10 1 0 0 0 1
RED
U 56300 44100 56300 49100 10 1
U 56300 49100 56800 49100 10 0
{
T 56300 49200 5 10 1 1 0 0 1
netname=ADDR
}
N 54700 47400 56100 47400 4
{
T 55700 47400 5 10 1 1 0 0 1
netname=A3
}
C 56100 47400 1 0 0 busripper-1.sym
{
T 56100 47800 5 8 0 0 0 0 1
device=none
}
N 54700 47700 56100 47700 4
{
T 55700 47700 5 10 1 1 0 0 1
netname=A2
}
C 56100 47700 1 0 0 busripper-1.sym
{
T 56100 48100 5 8 0 0 0 0 1
device=none
}
N 54700 48000 56100 48000 4
{
T 55700 48000 5 10 1 1 0 0 1
netname=A1
}
C 56100 48000 1 0 0 busripper-1.sym
{
T 56100 48400 5 8 0 0 0 0 1
device=none
}
N 54700 48300 56100 48300 4
{
T 55700 48300 5 10 1 1 0 0 1
netname=A0
}
C 56100 48300 1 0 0 busripper-1.sym
{
T 56100 48700 5 8 0 0 0 0 1
device=none
}
N 54700 46500 56100 46500 4
{
T 55700 46500 5 10 1 1 0 0 1
netname=A6
}
C 56100 46500 1 0 0 busripper-1.sym
{
T 56100 46900 5 8 0 0 0 0 1
device=none
}
N 54700 46800 56100 46800 4
{
T 55700 46800 5 10 1 1 0 0 1
netname=A5
}
C 56100 46800 1 0 0 busripper-1.sym
{
T 56100 47200 5 8 0 0 0 0 1
device=none
}
N 54700 47100 56100 47100 4
{
T 55700 47100 5 10 1 1 0 0 1
netname=A4
}
C 56100 47100 1 0 0 busripper-1.sym
{
T 56100 47500 5 8 0 0 0 0 1
device=none
}
N 54700 46200 56100 46200 4
{
T 55700 46200 5 10 1 1 0 0 1
netname=A7
}
N 54700 45900 56100 45900 4
{
T 55700 45900 5 10 1 1 0 0 1
netname=A8
}
N 54700 45600 56100 45600 4
{
T 55700 45600 5 10 1 1 0 0 1
netname=A9
}
N 54700 45300 56100 45300 4
{
T 55700 45300 5 10 1 1 0 0 1
netname=A10
}
N 54700 45000 56100 45000 4
{
T 55700 45000 5 10 1 1 0 0 1
netname=A11
}
N 54700 44700 56100 44700 4
{
T 55700 44700 5 10 1 1 0 0 1
netname=A12
}
N 54700 44400 56100 44400 4
{
T 55700 44400 5 10 1 1 0 0 1
netname=A13
}
N 54700 44100 56100 44100 4
{
T 55700 44100 5 10 1 1 0 0 1
netname=A14
}
C 56100 46200 1 0 0 busripper-1.sym
{
T 56100 46600 5 8 0 0 0 0 1
device=none
}
C 56100 45900 1 0 0 busripper-1.sym
{
T 56100 46300 5 8 0 0 0 0 1
device=none
}
C 56100 45600 1 0 0 busripper-1.sym
{
T 56100 46000 5 8 0 0 0 0 1
device=none
}
C 56100 45300 1 0 0 busripper-1.sym
{
T 56100 45700 5 8 0 0 0 0 1
device=none
}
C 56100 45000 1 0 0 busripper-1.sym
{
T 56100 45400 5 8 0 0 0 0 1
device=none
}
C 56100 44700 1 0 0 busripper-1.sym
{
T 56100 45100 5 8 0 0 0 0 1
device=none
}
C 56100 44400 1 0 0 busripper-1.sym
{
T 56100 44800 5 8 0 0 0 0 1
device=none
}
C 56100 44100 1 0 0 busripper-1.sym
{
T 56100 44500 5 8 0 0 0 0 1
device=none
}
C 50000 44300 1 0 1 connector2-1.sym
{
T 49800 45300 5 10 0 0 0 6 1
device=CONNECTOR_2
T 49700 45300 5 10 1 1 0 6 1
refdes=J2816
T 49500 44200 5 10 1 1 180 6 1
footprint=HEADER2_1
}
C 48200 43900 1 0 0 gnd-1.sym
N 48300 44500 48300 44200 4
T 49500 45100 9 10 1 0 0 0 1
2816
G 45500 40853 900 947 0 0 0
./symbols/osha-logo.svg
C 54700 42800 1 0 1 62256-2.sym
{
T 53700 47150 5 10 1 1 0 6 1
device=62256
T 53300 47400 5 10 1 1 0 0 1
refdes=U1
T 53700 46950 5 10 1 1 0 6 1
footprint=DIP28
}
N 53900 42700 55900 42700 4
{
T 55500 42700 5 10 1 1 0 0 1
netname=\_OE\_
}
N 53900 42700 53900 42900 4
N 51200 42700 52900 42700 4
{
T 51200 42700 5 10 1 1 0 0 1
netname=\_CS\_
}
C 48200 42400 1 0 0 gnd-1.sym
N 48300 43000 48300 42700 4
C 50000 42800 1 0 1 connector2-1.sym
{
T 49500 42700 5 10 1 1 180 6 1
footprint=HEADER2_1
T 49800 43800 5 10 0 0 0 6 1
device=CONNECTOR_2
T 49700 43800 5 10 1 1 0 6 1
refdes=J2832
}
T 49500 43600 9 10 1 0 0 0 1
2832
C 42800 40600 1 0 0 gnd-1.sym
N 42900 41200 42900 40900 4
C 44600 41000 1 0 1 connector2-1.sym
{
T 44100 40900 5 10 1 1 180 6 1
footprint=HEADER2_1
T 44400 42000 5 10 0 0 0 6 1
device=CONNECTOR_2
T 44300 42000 5 10 1 1 0 6 1
refdes=J28256
}
T 44100 41800 9 10 1 0 0 0 1
28256
C 40200 40600 1 0 0 gnd-1.sym
N 40300 41200 40300 40900 4
C 42000 41000 1 0 1 connector2-1.sym
{
T 41500 40900 5 10 1 1 180 6 1
footprint=HEADER2_1
T 41800 42000 5 10 0 0 0 6 1
device=CONNECTOR_2
T 41700 42000 5 10 1 1 0 6 1
refdes=J2864
}
T 41500 41800 9 10 1 0 0 0 1
2864
N 42900 45500 41700 45500 4
{
T 41700 45500 5 10 1 1 0 0 1
netname=LED1
}
N 40200 41800 40900 41800 4
{
T 40200 41800 5 10 1 1 0 0 1
netname=G2864
}
N 40200 41800 40200 41500 4
N 40200 41500 40300 41500 4
N 42800 41800 43500 41800 4
{
T 42800 41800 5 10 1 1 0 0 1
netname=G28256
}
N 42800 41800 42800 41500 4
N 42800 41500 42900 41500 4
N 48200 43600 48900 43600 4
{
T 48200 43600 5 10 1 1 0 0 1
netname=G2832
}
N 48200 43600 48200 43300 4
N 48200 43300 48300 43300 4
N 48200 45100 48900 45100 4
{
T 48200 45100 5 10 1 1 0 0 1
netname=G2816
}
N 48200 45100 48200 44800 4
N 48200 44800 48300 44800 4
N 52900 42900 52900 42700 4
C 51700 43100 1 270 1 resistor-1.sym
{
T 52100 43400 5 10 0 0 90 2 1
device=RESISTOR
T 51500 43200 5 10 1 1 90 2 1
refdes=R3
T 51300 43200 5 10 1 1 90 2 1
value=680
T 51300 43600 5 10 1 1 90 2 1
footprint=0805
}
N 51800 43100 51800 42700 4
C 51600 44000 1 0 0 5V-plus-1.sym
N 42900 43700 41700 43700 4
{
T 41700 43700 5 10 1 1 0 0 1
netname=G2832
}
N 46600 43700 45400 43700 4
{
T 45900 43700 5 10 1 1 0 0 1
netname=G2816
}
C 51500 49800 1 0 0 gnd-1.sym
N 51600 50300 51600 50100 4
C 53200 50200 1 0 0 resistor-1.sym
{
T 53500 50600 5 10 0 0 0 0 1
device=RESISTOR
T 53300 50000 5 10 1 1 0 0 1
refdes=R2
T 53300 49800 5 10 1 1 0 0 1
value=680
T 53700 49800 5 10 1 1 0 0 1
footprint=0805
}
C 54200 50100 1 0 0 led-1.sym
{
T 55000 50700 5 10 0 0 0 0 1
device=LED
T 55000 50900 5 10 0 0 0 0 1
symversion=0.1
T 54200 50100 5 10 0 0 90 0 1
footprint=LED3
T 54200 49900 5 10 1 1 0 0 1
refdes=LED2
}
N 52300 50300 53200 50300 4
{
T 52400 50300 5 10 1 1 0 0 1
netname=LED2
}
C 55200 49800 1 0 0 gnd-1.sym
N 55300 50300 55300 50100 4
T 54800 49900 9 10 1 0 0 0 1
RED
N 50400 50300 50500 50300 4
N 51400 50300 51600 50300 4
N 54100 50300 54200 50300 4
N 55100 50300 55300 50300 4
T 40400 50300 9 20 1 0 0 0 1
WORK IN PROGRESS.
